Name,CyrillicName,Division,BirthDate,BodyweightKg,WeightClassKg,Sex,Bench1Kg,Bench2Kg,Bench3Kg,Best3BenchKg,TotalKg,Event,Equipment,Place
Zhanna Dorokhina,Жанна Дорохина,Pro Open,1968-11-11,57.5,,F,60.0,-65.0,67.5,67.50,67.50,B,Raw,1
Anastasiya Khramtsova,Анастасия Храмцова,Pro Open,1996-06-16,54.4,,F,35.0,37.5,40.0,40.00,40.00,B,Raw,2
Mariya Kugaevskaya,Мария Кугаевская,Pro Open,1991-06-11,57.6,,F,35.0,40.0,-45.0,40.00,40.00,B,Raw,3
Alena Maltseva,Алена Мальцева,Pro Open,1990-05-31,50.7,,F,35.0,-37.5,-37.5,35.00,35.00,B,Raw,4
Sergey Konovalov #3,Сергей Коновалов,Pro Teen 16-17,1997-07-03,53.3,60,M,70.0,80.0,85.0,85.00,85.00,B,Raw,1
Konstantin Demidenko,Константин Демиденко,Pro Teen 16-17,1996-03-06,59.4,60,M,75.0,80.0,-85.0,80.00,80.00,B,Raw,2
Maksim Lapushkin,Максим Лапушкин,Pro Teen 16-17,1997-03-31,59.2,60,M,-70.0,70.0,-75.0,70.00,70.00,B,Raw,3
Artem Zelenin,Артем Зеленин,Pro Teen 16-17,1996-09-08,67.3,75,M,90.0,100.0,110.0,110.00,110.00,B,Raw,1
Nikita Mezenov,Никита Мезенов,Pro Teen 16-17,1997-01-24,69.4,75,M,85.0,87.5,-90.0,87.50,87.50,B,Raw,2
Aleksey Piskunov,Алексей Пискунов,Pro Teen 16-17,1997-02-05,69.1,75,M,75.0,80.0,-85.0,80.00,80.00,B,Raw,3
Ilya Nabiev,Илья Набиев,Pro Teen 18-19,1995-02-05,73.4,75,M,65.0,-70.0,72.5,72.50,72.50,B,Raw,1
Ilya Galkin,Илья Галкин,Pro Teen 18-19,1995-04-07,88.8,90,M,140.0,-145.0,-145.0,140.00,140.00,B,Raw,1
Kristian Ostapets,Кристиан Остапец,Pro Teen 18-19,1995-06-02,82.5,90,M,107.5,115.0,-120.0,115.00,115.00,B,Raw,2
Aleksandr Kopytov,Александр Копытов,Pro Teen 16-17,1996-12-18,85.1,90,M,100.0,110.0,-117.5,110.00,110.00,B,Raw,1
Evgeniy Melnikov,Евгений Мельников,Pro Teen 16-17,1996-05-02,84.1,90,M,95.0,-105.0,105.0,105.00,105.00,B,Raw,2
Valeriy Maksimov,Валерий Максимов,Pro Teen 16-17,1995-12-27,81.9,90,M,-85.0,90.0,92.5,92.50,92.50,B,Raw,3
Dmitriy Vasilvitskiy,Дмитрий Васильвицкий,Pro Open,1966-02-14,73.5,75,M,132.5,142.5,147.5,147.50,147.50,B,Raw,1
Eduard Dmitrienko,Эдуард Дмитриенко,Pro Open,1993-06-26,73.8,75,M,-130.0,132.5,135.0,135.00,135.00,B,Raw,2
Ilya Galiakhmatov,Илья Галиахматов,Pro Open,1986-10-01,72.9,75,M,130.0,-132.5,132.5,132.50,132.50,B,Raw,3
Sergey Valentinov,Сергей Валентинов,Pro Open,1987-08-04,74.8,75,M,125.0,132.5,-140.0,132.50,132.50,B,Raw,4
Aleksandr Volosnikov,Александр Волосников,Pro Open,1991-06-08,67.8,75,M,115.0,120.0,-125.0,120.00,120.00,B,Raw,5
Maksim Ladyshkin,Максим Ладышкин,Pro Open,1990-04-04,73.5,75,M,-110.0,-117.5,117.5,117.50,117.50,B,Raw,6
Artem Fominykh,Артем Фоминых,Pro Open,1991-11-02,66.9,75,M,100.0,107.5,115.0,115.00,115.00,B,Raw,7
Vasiliy Zinchenko,Василий Зинченко,Pro Open,1978-11-27,70.6,75,M,105.0,110.0,115.0,115.00,115.00,B,Raw,8
Igor Kynkurogov,Игорь Кынкурогов,Pro Open,1988-03-26,75,75,M,105.0,115.0,-125.0,115.00,115.00,B,Raw,9
Dmitriy Polyanovskiy,Дмитрий Поляновский,Pro Open,1985-05-19,73.1,75,M,-100.0,100.0,105.0,105.00,105.00,B,Raw,10
Ivan Kudryashov,Иван Кудряшов,Pro Open,1984-08-01,67.2,75,M,95.0,100.0,102.5,102.50,102.50,B,Raw,11
Aleksey Shakaev,Алексей Шакаев,Pro Open,1985-05-25,67.3,75,M,95.0,102.5,-107.5,102.50,102.50,B,Raw,12
Andrey Karakulov,Андрей Каракулов,Pro Open,1988-09-24,71.1,75,M,95.0,-100.0,100.0,100.00,100.00,B,Raw,13
Dmitriy Baleev,Дмитрий Балеев,Pro Open,1992-07-06,65.8,75,M,90.0,95.0,-100.0,95.00,95.00,B,Raw,14
Evgeniy Zakharov #3,Евгений Захаров,Pro Open,1986-01-09,72.5,75,M,80.0,-85.0,-90.0,80.00,80.00,B,Raw,15
Semen Shmelev,Семен Шмелев,Pro Open,1987-04-12,68.8,75,M,-90.0,-90.0,-90.0,,,B,Raw,DQ
Vladimir Sergeev,Владимир Сергеев,Pro Open,1989-07-22,73.3,75,M,-115.0,-115.0,-115.0,,,B,Raw,DQ
Roman Lepeshkin,Роман Лепешкин,Pro Open,1978-11-25,86.4,90,M,155.0,165.0,-172.5,165.00,165.00,B,Raw,1
Rinad Nizamov,Ринад Низамов,Pro Open,1973-09-18,90,90,M,155.0,160.0,-162.5,160.00,160.00,B,Raw,2
Aleksey Babkin,Алексей Бабкин,Pro Open,1981-12-05,89.5,90,M,150.0,-157.5,157.5,157.50,157.50,B,Raw,3
Dmitriy Sokolov,Дмитрий Соколов,Pro Open,1984-08-02,89.1,90,M,-140.0,142.5,-145.0,142.50,142.50,B,Raw,4
Pavel Kroksov,Павел Кроксов,Pro Open,1987-02-11,84.2,90,M,120.0,130.0,137.5,137.50,137.50,B,Raw,5
Roman Korovodin,Роман Короводин,Pro Open,1989-02-22,77,90,M,135.0,-147.5,-147.5,135.00,135.00,B,Raw,6
Zirakkhan Sadikov,Зиракхан Садиков,Pro Open,1991-01-07,85.6,90,M,130.0,135.0,-140.0,135.00,135.00,B,Raw,7
Sergey Malyshkin,Сергей Малышкин,Pro Open,1983-03-11,87.5,90,M,135.0,-145.0,-145.0,135.00,135.00,B,Raw,8
Ruslan Khibatullin,Руслан Хибатуллин,Pro Open,1983-04-15,84.1,90,M,-125.0,-132.5,132.5,132.50,132.50,B,Raw,9
Nikolay Dobrolyubov,Николай Добролюбов,Pro Open,1987-07-16,84.2,90,M,125.0,132.5,-140.0,132.50,132.50,B,Raw,10
Artush Karapetyan,Артуш Карапетян,Pro Open,1991-10-20,84,90,M,120.0,-125.0,-125.0,120.00,120.00,B,Raw,11
Konstantin Lvov,Константин Львов,Pro Open,1989-08-28,84.7,90,M,120.0,-130.0,-130.0,120.00,120.00,B,Raw,12
Andrey Demochkin,Андрей Демочкин,Pro Open,1990-07-04,89.6,90,M,110.0,115.0,-122.5,115.00,115.00,B,Raw,13
Efim Antipov,Ефим Антипов,Pro Open,1984-09-25,80.1,90,M,102.5,110.0,-120.0,110.00,110.00,B,Raw,14
Dmitriy Tokarev,Дмитрий Токарев,Pro Open,1992-07-26,82,90,M,100.0,110.0,-120.0,110.00,110.00,B,Raw,15
Rustam Krapivin,Рустам Крапивин,Pro Open,1984-06-14,77.7,90,M,-125.0,-125.0,,,,B,Raw,DQ
Aleksandr Deryabin,Александр Дерябин,Pro Open,1978-02-11,104.9,105,M,185.0,195.0,202.5,202.50,202.50,B,Raw,1
Sergey Yurev,Сергей Юрьев,Pro Open,1974-07-04,97.6,105,M,180.0,190.0,-195.0,190.00,190.00,B,Raw,2
Sergey Martyanov,Сергей Мартьянов,Pro Open,1975-02-25,98.4,105,M,180.0,-190.0,190.0,190.00,190.00,B,Raw,3
Mikhail Vinokurov,Михаил Винокуров,Pro Open,1983-05-28,95.1,105,M,175.0,180.0,-185.0,180.00,180.00,B,Raw,4
Denis Chesnokov,Денис Чесноков,Pro Open,1979-01-03,100.8,105,M,180.0,-190.0,-190.0,180.00,180.00,B,Raw,5
Vladimir Vasilev,Владимир Васильев,Pro Open,1967-05-22,96.8,105,M,150.0,-157.5,-165.0,150.00,150.00,B,Raw,6
Igor Khramtsov,Игорь Храмцов,Pro Open,1973-04-17,102,105,M,130.0,140.0,145.0,145.00,145.00,B,Raw,7
Sergey Kazymov,Сергей Казымов,Pro Open,1981-08-31,100.2,105,M,125.0,-130.0,130.0,130.00,130.00,B,Raw,8
Sergey Kolesnichenko,Сергей Колесниченко,Pro Open,1979-11-19,128.8,105+,M,210.0,220.0,235.0,235.00,235.00,B,Raw,1
Andrey Ovechkin,Андрей Овечкин,Pro Open,1979-02-07,116.9,105+,M,210,222.5,-232.5,222.50,222.50,B,Raw,2
Vladimir Lopin,Владимир Лопин,Pro Open,1983-01-21,127.9,105+,M,200.0,210.0,215.0,215.00,215.00,B,Raw,3
Kirill Govorukhin,Кирилл Говорухин,Pro Open,1982-11-27,117,105+,M,200.0,207.5,212.5,212.50,212.50,B,Raw,4
Mikhail Glazunov,Михаил Глазунов,Pro Open,1974-02-09,122,105+,M,170.0,180.0,200.0,200.00,200.00,B,Raw,5
Eduard Churakov,Эдуард Чураков,Pro Open,1977-02-09,114.9,105+,M,180.0,185.0,-187.5,185.00,185.00,B,Raw,6
Mikhail Yurev,Михаил Юрьев,Pro Open,1978-05-20,109.7,105+,M,-172.5,180.0,-190.0,180.00,180.00,B,Raw,7
Sergey Dolgikh,Сергей Долгих,Pro Open,1973-11-27,108.2,105+,M,165.0,170.0,175.0,175.00,175.00,B,Raw,8
Vasiliy Belonogov,Василий Белоногов,Pro Open,1972-03-23,108.9,105+,M,150.0,-155.0,155.0,155.00,155.00,B,Raw,9
