Place,Sex,Name,CyrillicName,BodyweightKg,Squat1Kg,Squat2Kg,Squat3Kg,Best3SquatKg,Squat4Kg,Bench1Kg,Bench2Kg,Bench3Kg,Best3BenchKg,Bench4Kg,Deadlift1Kg,Deadlift2Kg,Deadlift3Kg,Best3DeadliftKg,Deadlift4Kg,TotalKg,WeightClassKg,Event,Equipment,Tested,Division,Age,BirthDate
1,F,Yuliya Vorobeva,Юлия Воробьева,43.55,65,-70,-72.5,65,,37,40,-42.5,40,,82,85,87,87,,192.5,44,SBD,Raw,Yes,Juniors 20-23,21,1997-12-01
2,F,Alena Nelogova,Алена Нелогова,37.05,40,-42.5,45,45,,20,22.5,25,25,,40,50,52.5,52.5,,122.5,44,SBD,Raw,Yes,Juniors 20-23,22,1997-09-01
1,F,Anna Astrakhantseva,Анна Астраханцева,46.7,-85,85,90,90,,45,50,-55,50,,100,110,115,115,,255,48,SBD,Raw,Yes,Juniors 20-23,23,1996-09-06
1,F,Svetlana Fomicheva,Светлана Фомичева,47.5,75,82.5,-90,82.5,,45,47.5,-50,47.5,,95,110,-117.5,110,,240,48,SBD,Raw,Yes,Open,42,1977-10-25
1,F,Lyubov Bogdanova,Любовь Богданова,51.7,-80,80,90,90,,40,-45,45,45,,90,95,100,100,,235,52,SBD,Raw,Yes,Juniors 20-23,20,1998-12-05
1,F,Anna Semenova,Анна Семенова,51.5,70,-75,-75,70,,40,42.5,-45,42.5,,90,100,-112.5,100,,212.5,52,SBD,Raw,Yes,Open,29,1990-09-05
1,F,Viktoriya Krylova,Виктория Крылова,55.3,80,90,92.5,92.5,,55,60,-62.5,60,,80,90,-95,90,,242.5,56,SBD,Raw,Yes,Juniors 20-23,20,1999-01-25
1,F,Ella Kutsenko,Элла Куценко,55.6,85,-92.5,92.5,92.5,,52.5,-55,-55,52.5,,120,-132.5,-132.5,120,,265,56,SBD,Raw,Yes,Open,31,1988-04-14
2,F,Anastasiya Firsova,Анастасия Фирсова,55.9,-70,75,77.5,77.5,,50,-52.5,-52.5,50,,95,100,102.5,102.5,,230,56,SBD,Raw,Yes,Open,36,1983-09-14
3,F,Mariya Maltseva,Мария Мальцева,53.5,75,80,85,85,,45,47.5,50,50,,80,85,90,90,,225,56,SBD,Raw,Yes,Open,36,1982-12-25
4,F,Elena Avdeeva,Елена Авдеева,54.1,70,-77.5,-77.5,70,,42.5,45,47.5,47.5,,90,97.5,100,100,,217.5,56,SBD,Raw,Yes,Open,37,1982-02-17
1,F,Anastasiya Chernyavskaya,Анастасия Чернявская,59.5,95,100,105,105,,70,75,77.5,77.5,,145,152.5,157.5,157.5,,340,60,SBD,Raw,Yes,Open,23,1995-12-13
2,F,Nadezhda Kiyashko,Надежда Кияшко,59.8,85,95,-105,95,,75,82.5,-85,82.5,,130,145,157.5,157.5,,335,60,SBD,Raw,Yes,Open,25,1994-05-19
3,F,Evgeniya Gaevaya,Евгения Гаевая,58.15,85,95,102.5,102.5,,50,55,-60,55,,100,115,120,120,,277.5,60,SBD,Raw,Yes,Open,29,1990-08-09
4,F,Irina Molchanova,Ирина Молчанова,58.25,75,80,82.5,82.5,,50,52.5,-55,52.5,,115,120,125,125,,260,60,SBD,Raw,Yes,Open,31,1988-11-19
1,F,Mariya Tyagnyryadko,Мария Тягнырядко,65.3,110,-115,115,115,,60,-62.5,-62.5,60,,-120,120,130,130,,305,67.5,SBD,Raw,Yes,Open,33,1986-02-08
2,F,Anna Moskalenko,Анна Москаленко,63.9,95,100,-105,100,,45,47.5,50,50,,110,115,122.5,122.5,,272.5,67.5,SBD,Raw,Yes,Open,31,1988-01-24
1,F,Natalya Sorochinskaya,Наталья Сорочинская,63.3,40,50,-60,50,,25,30,-32.5,30,,70,80,90,90,,170,67.5,SBD,Raw,Yes,Masters 55-59,57,1962-02-01
1,F,Anna Stepanova,Анна Степанова,61.15,70,75,77.5,77.5,,42.5,45,-47.5,45,,95,100,-105,100,,222.5,67.5,SBD,Raw,Yes,Masters 60-64,62,1957-02-15
1,F,Viktoriya Shelenina,Виктория Шеленина,72.6,90,95,100,100,,-55,55,60,60,,120,130,-135,130,,290,75,SBD,Raw,Yes,Open,26,1992-12-07
1,M,Evgeniy Dmitriev,Евгений Дмитриев,66.6,100,120,-135,120,,70,80,-90,80,,130,-140,-140,130,,330,67.5,SBD,Raw,Yes,Open,24,1995-11-02
1,M,Ivan Novozhilov,Иван Новожилов,72.8,115,125,-132.5,125,,90,100,105,105,,125,135,145,145,,375,75,SBD,Raw,Yes,Teen 16-17,16,2003-08-10
1,M,Aleksandr Osinovskiy,Александр Осиновский,72.1,175,182.5,185,185,,-130,130,-140,130,,185,195,-205,195,,510,75,SBD,Raw,Yes,Open,28,1991-07-18
1,M,Andrey Kulgin,Андрей Кулгин,82.05,200,205,210,210,,-140,140,145,145,,225,230,-240,230,,585,82.5,SBD,Raw,Yes,Open,33,1986-10-02
2,M,Aleksandr Khokhlov,Александр Хохлов,82,157.5,165,-170,165,,100,-105,105,105,,180,190,195,195,,465,82.5,SBD,Raw,Yes,Open,32,1987-05-16
1,M,Maksim Novikov,Максим Новиков,83.2,235,245,-250,245,,155,165,167.5,167.5,,255,270,275,275,,687.5,90,SBD,Raw,Yes,Open,20,1998-12-20
2,M,Andrey Yuroev,Андрей Юроев,89.8,210,222.5,-235,222.5,,145,150,157.5,157.5,,220,237.5,245,245,,625,90,SBD,Raw,Yes,Open,39,1980-10-30
3,M,Andrey Pavlyuchenko,Андрей Павлюченко,88.05,140,155,165,165,,100,110,112,112,,200,220,225,225,,502.5,90,SBD,Raw,Yes,Open,29,1990-04-20
4,M,Ilya Martynov,Илья Мартынов,87,135,-140,145,145,,110,-115,-115,110,,170,175,180,180,,435,90,SBD,Raw,Yes,Open,33,1986-04-29
DQ,M,Evgeniy Lystsov,Евгений Лысцов,87.8,142.5,-150,150,150,,102.5,107.5,110,110,,-165,-165,-165,,,,90,SBD,Raw,Yes,Open,30,1989-06-11
1,M,Vladimir Karandashev,Владимир Карандашев,85.6,160,170,180,180,,130,135,140,140,,175,185,195,195,,515,90,SBD,Raw,Yes,Masters 45-49,47,1972-03-12
1,M,Pavel Filimonov,Павел Филимонов,100,180,190,200,200,,105,110,-117.5,110,,200,210,220,220,,530,100,SBD,Raw,Yes,Juniors 20-23,20,1999-09-09
1,M,Vladimir Safonov,Владимир Сафонов,96.9,220,227.5,235,235,,155,160,-165,160,,225,235,245,245,,640,100,SBD,Raw,Yes,Open,32,1987-03-21
2,M,Sergey Tikhomirov,Сергей Тихомиров,98.9,190,205,215,215,,130,135,-140,135,,210,220,-225,220,,570,100,SBD,Raw,Yes,Open,35,1984-03-12
3,M,Dmitriy Egorov,Дмитрий Егоров,90.65,160,170,175,175,,115,120,125,125,,180,200,-210,200,,500,100,SBD,Raw,Yes,Open,30,1989-01-07
4,M,Eduard Ibragimov,Эдуард Ибрагимов,98.7,145,155,-165,155,,95,105,110,110,,190,210,225,225,,490,100,SBD,Raw,Yes,Open,32,1987-03-04
1,M,Kirill Shitikov,Кирилл Шитиков,108.9,170,180,185,185,,140,-150,-150,140,,200,212.5,220,220,,545,110,SBD,Raw,Yes,Open,34,1985-07-02
2,M,Sergey Aleshchenko,Сергей Алещенко,104.1,150,160,165,165,,110,120,125,125,,170,190,200,200,,490,110,SBD,Raw,Yes,Open,30,1989-08-13
1,M,Sergey Kuznetsov #25,Сергей Кузнецов,82.05,145,155,165,165,,140,-150,-150,140,,-200,-215,215,215,,520,82.5,SBD,Raw,No,Open,24,1995-01-23
1,M,Dmitriy Mukhin,Дмитрий Мухин,89.85,220,230,235,235,,155,162.5,-165,162.5,,-255,255,260,260,,657.5,90,SBD,Raw,No,Open,36,1983-05-15
2,M,Nikita Kulpin,Никита Кульпин,88.6,-200,200,210,210,,160,-170,-170,160,,205,220,230,230,,600,90,SBD,Raw,No,Open,26,1993-10-11
1,M,Oleg Alyushinskiy,Олег Алюшинский,89.15,190,-200,200,200,,150,-165,-165,150,,220,-250,-255,220,,570,90,SBD,Raw,No,Masters 40-44,42,1977-04-28
1,M,Anton Rusalenko,Антон Русаленко,92.65,210,225,-230,225,,160,167.5,-170,167.5,,265,290,,290,,682.5,100,SBD,Raw,No,Open,32,1987-10-22
2,M,Evgeniy Gontsov,Евгений Гонцов,95.8,200,-210,-210,200,,170,-180,180,180,,220,240,-250,240,,620,100,SBD,Raw,No,Open,30,1989-06-23
3,M,Sergey Lvov,Сергей Львов,93.55,180,195,205,205,,140,152.5,-157.5,152.5,,200,220,230,230,,587.5,100,SBD,Raw,No,Open,40,1979-05-05
1,F,Alyona Konstantinova,Алёна Константинова,68.8,65,70,72.5,72.5,,35,-40,40,40,,70,77.5,85,85,,197.5,75,SBD,Wraps,Yes,Open,24,1995-04-29
1,F,Elena Baleeva,Елена Балеева,87,100,-115,-115,100,,60,65,-70,65,,105,115,125,125,,290,90,SBD,Wraps,Yes,Open,36,1983-05-03
1,F,Olga Shabutdinova,Ольга Шабутдинова,66.8,135,-142.5,142.5,142.5,,65,72.5,77.5,77.5,,125,142.5,157.5,157.5,,377.5,67.5,SBD,Wraps,No,Masters 40-44,42,1977-01-21
1,M,Dmitriy Mikhaylov,Дмитрий Михайлов,99.55,280,290,300,300,,160,165,170,170,,280,290,-300,290,,760,100,SBD,Wraps,No,Open,35,1984-05-23
2,M,Timur Klimenko,Тимур Клименко,96.2,230,240,-250,240,,140,150,-155,150,,-270,270,-280,270,,660,100,SBD,Wraps,No,Open,31,1988-01-15
DQ,M,Andrey Belavkin,Андрей Белавкин,93.6,-240,-240,-250,,,,,,,,,,,,,,100,SBD,Wraps,No,Open,31,1988-03-24
DQ,M,Aleksandr Komkov,Александр Комков,121.65,340,-355,355,355,,-200,-200,,,,,,,,,,125,SBD,Wraps,No,Open,36,1983-11-26
1,F,Varvara Skvortsova,Варвара Скворцова,56,,,,,,40,-42.5,-42.5,40,,85,90,-100,90,,130,56,BD,Raw,Yes,Open,25,1994-01-19
1,F,Varvara Rogozina,Варвара Рогозина,59,,,,,,45,-47.5,47.5,47.5,,90,95,-105,95,,142.5,60,BD,Raw,Yes,Open,27,1992-11-17
1,M,Andrey Kulgin,Андрей Кулгин,82.05,,,,,,-140,140,145,145,,225,230,-240,230,,375,82.5,BD,Raw,Yes,Open,33,1986-10-02
1,M,Ivan Kovalenko,Иван Коваленко,82.2,,,,,,115,125,-130,125,,180,195,200,200,,325,82.5,BD,Raw,Yes,Masters 40-44,41,1978-02-13
1,M,Ilya Martynov,Илья Мартынов,87,,,,,,110,-115,-115,110,,170,175,180,180,,290,90,BD,Raw,Yes,Open,33,1986-04-29
1,M,Vladimir Vitashov,Владимир Виташов,87.6,,,,,,-115,120,-122.5,120,,160,170,175,175,,295,90,BD,Raw,Yes,Masters 55-59,56,1963-08-05
1,M,Andrey Ilin,Андрей Ильин,99.9,,,,,,130,135,137.5,137.5,,210,220,225,225,,362.5,100,BD,Raw,Yes,Open,31,1988-03-13
1,M,Andrey Ivanov,Андрей Иванов,104.45,,,,,,160,165,167.5,167.5,,210,220,230,230,,397.5,110,BD,Raw,Yes,Open,35,1983-12-18
1,M,Sergey Kuznetsov #25,Сергей Кузнецов,82.05,,,,,,140,-150,-150,140,,215,,,215,,355,82.5,BD,Raw,No,Open,24,1995-01-23
1,M,Vadim Avetisyan,Вадим Аветисян,89.35,,,,,,150,-155,-155,150,,250,,,250,,400,90,BD,Raw,No,Open,39,1980-06-18
1,M,Aleksandr Emelyanov,Александр Емельянов,96.1,,,,,,182.5,-187.5,-187.5,182.5,,255,-260,,255,,437.5,100,BD,Raw,No,Open,26,1993-05-03
1,M,Denis Popov,Денис Попов,109.75,,,,,,170,177.5,182.5,182.5,,260,270,280,280,,462.5,110,BD,Raw,No,Open,30,1989-05-18
1,M,Andrey Rashchupkin,Андрей Ращупкин,115.2,,,,,,152.5,162.5,-167.5,162.5,,200,210,-220,210,,372.5,125,BD,Raw,No,Open,30,1989-02-28
1,F,Galina Kozlova,Галина Козлова,67.5,-120,120,-130,120,,,,,,,,,,,,120,67.5,S,Raw,Yes,Open,29,1990-04-30
2,F,Mariya Tyagnyryadko,Мария Тягнырядко,65.3,110,-115,115,115,,,,,,,,,,,,115,67.5,S,Raw,Yes,Open,33,1986-02-08
1,M,Andrey Kulgin,Андрей Кулгин,82.05,200,205,210,210,,,,,,,,,,,,210,82.5,S,Raw,Yes,Open,33,1986-10-02
1,M,Maksim Gordeev,Максим Гордеев,82.65,195,205,215,215,,,,,,,,,,,,215,90,S,Raw,Yes,Open,31,1988-07-10
DQ,M,Aleksandr Nikitkov,Александр Никитков,78.4,-170,-180,-180,,,,,,,,,,,,,,82.5,S,Wraps,Yes,Open,27,1992-02-17
1,M,Andrey Opolchentsev,Андрей Ополченцев,96.95,200,210,-215,210,,,,,,,,,,,,210,100,S,Wraps,Yes,Open,26,1993-09-16
DQ,M,Pavel Bakhtiev,Павел Бахтиев,118.75,-190,-190,-200,,,,,,,,,,,,,,125,S,Wraps,Yes,Open,31,1988-09-12
1,M,Aleksandr Komkov,Александр Комков,121.7,340,-355,355,355,,,,,,,,,,,,355,125,S,Wraps,No,Open,36,1983-11-26
1,F,Polina Kharitonova,Полина Харитонова,51.5,,,,,,47.5,-50,50,50,,,,,,,50,52,B,Raw,Yes,Open,27,1992-06-04
2,F,Anastasiya Zakhvatova,Анастасия Захватова,51,,,,,,40,42.5,45,45,,,,,,,45,52,B,Raw,Yes,Open,33,1986-07-21
1,F,Svetlana Korableva,Светлана Кораблева,54.05,,,,,,55,57.5,-60,57.5,,,,,,,57.5,56,B,Raw,Yes,Masters 40-44,41,1978-08-07
1,F,Anastasiya Chernyavskaya,Анастасия Чернявская,59.5,,,,,,70,75,77.5,77.5,,,,,,,77.5,60,B,Raw,Yes,Open,23,1995-12-13
2,F,Kseniya Isakova,Ксения Исакова,59.55,,,,,,62.5,67.5,-70,67.5,,,,,,,67.5,60,B,Raw,Yes,Open,26,1993-04-16
3,F,Yuliya Tarasova,Юлия Тарасова,58.45,,,,,,57.5,62.5,-67.5,62.5,,,,,,,62.5,60,B,Raw,Yes,Open,29,1990-10-03
1,F,Mariya Tyagnyryadko,Мария Тягнырядко,65.3,,,,,,60,-62.5,-62.5,60,,,,,,,60,67.5,B,Raw,Yes,Open,33,1986-02-08
1,M,Aleksey Arkhipov,Алексей Архипов,59.95,,,,,,105,-112.5,-112.5,105,,,,,,,105,60,B,Raw,Yes,Masters 45-49,45,1974-01-19
1,M,Vladimir Agafonov,Владимир Агафонов,67.35,,,,,,105,-110,,105,,,,,,,105,67.5,B,Raw,Yes,Open,27,1992-05-11
1,M,Denis Ivanchishin,Денис Иванчишин,72.95,,,,,,130,135,140,140,,,,,,,140,75,B,Raw,Yes,Open,35,1984-01-11
2,M,Gapur Magomedov,Гапур Магомедов,74.8,,,,,,117.5,-127.5,135,135,,,,,,,135,75,B,Raw,Yes,Open,30,1989-04-10
3,M,Vasiliy Ivanov,Василий Иванов,74.15,,,,,,130,-135,-135,130,,,,,,,130,75,B,Raw,Yes,Open,30,1988-12-22
4,M,Artem Mukharyamov,Артем Мухарьямов,72.85,,,,,,110,117.5,-122.5,117.5,,,,,,,117.5,75,B,Raw,Yes,Open,30,1989-08-03
5,M,Igor Lisovskiy,Игорь Лисовский,72.75,,,,,,100,-105,-105,100,,,,,,,100,75,B,Raw,Yes,Open,36,1983-04-20
6,M,Igor Nikolaev,Игорь Николаев,73.2,,,,,,-95,95,-100,95,,,,,,,95,75,B,Raw,Yes,Open,29,1990-07-24
DQ,M,Artyom Bornyakov,Артём Борняков,74.75,,,,,,-125,-125,-130,,,,,,,,,75,B,Raw,Yes,Open,30,1989-10-18
1,M,Stanislav Milenin,Станислав Миленин,74,,,,,,105,107.5,-110,107.5,,,,,,,107.5,75,B,Raw,Yes,Masters 40-44,44,1975-07-04
1,M,Aleksandr Ilyukhin,Александр Илюхин,72.8,,,,,,112.5,117.5,-120,117.5,,,,,,,117.5,75,B,Raw,Yes,Masters 55-59,57,1962-10-03
1,M,Andrey Kulgin,Андрей Кулгин,82.05,,,,,,-140,140,145,145,,,,,,,145,82.5,B,Raw,Yes,Open,33,1986-10-02
2,M,Pavel Serebryakov,Павел Серебряков,78.4,,,,,,-135,137.5,140,140,,,,,,,140,82.5,B,Raw,Yes,Open,34,1985-02-24
3,M,Aleksey Bondarev,Алексей Бондарев,80.9,,,,,,135,-140,-145,135,,,,,,,135,82.5,B,Raw,Yes,Open,39,1980-04-14
4,M,Ruslan Stepanov,Руслан Степанов,82.05,,,,,,135,-137.5,-137.5,135,,,,,,,135,82.5,B,Raw,Yes,Open,41,1978-04-06
5,M,Aleksandr Nikitkov,Александр Никитков,78.25,,,,,,110,120,127.5,127.5,,,,,,,127.5,82.5,B,Raw,Yes,Open,27,1992-02-17
6,M,Pavel Medvedev,Павел Медведев,81,,,,,,120,127.5,-130,127.5,,,,,,,127.5,82.5,B,Raw,Yes,Open,28,1991-05-21
7,M,Evgeniy Erofeev,Евгений Ерофеев,79.6,,,,,,-110,110,120,120,,,,,,,120,82.5,B,Raw,Yes,Open,24,1995-11-17
8,M,Sergey Salkov,Сергей Сальков,81.15,,,,,,115,-127.5,-127.5,115,,,,,,,115,82.5,B,Raw,Yes,Open,28,1991-02-24
9,M,Aleksandr Nikonov,Александр Никонов,79.6,,,,,,100,107.5,112.5,112.5,,,,,,,112.5,82.5,B,Raw,Yes,Open,29,1990-10-07
1,M,Aleksandr Vasilenko,Александр Василенко,88.4,,,,,,147.5,152.5,-157.5,152.5,,,,,,,152.5,90,B,Raw,Yes,Juniors 20-23,23,1995-12-09
2,M,Ilya Vlaskin,Илья Власкин,89.15,,,,,,145,152.5,-155,152.5,,,,,,,152.5,90,B,Raw,Yes,Juniors 20-23,22,1997-09-14
1,M,Aleksandr Yalkapov,Александр Ялкапов,85.6,,,,,,-160,165,-167.5,165,,,,,,,165,90,B,Raw,Yes,Open,37,1981-12-16
2,M,Anton Antonov,Антон Антонов,84.9,,,,,,145,152.5,160,160,,,,,,,160,90,B,Raw,Yes,Open,30,1989-03-07
3,M,Pavel Afanasev,Павел Афанасьев,89.5,,,,,,147.5,152.5,-155,152.5,,,,,,,152.5,90,B,Raw,Yes,Open,36,1983-04-17
4,M,Nikolay Shumskiy,Николай Шумский,89.7,,,,,,152.5,-160,-160,152.5,,,,,,,152.5,90,B,Raw,Yes,Open,35,1984-06-29
5,M,Rasim Mancharov,Расим Манчаров,89.95,,,,,,135,145,-152.5,145,,,,,,,145,90,B,Raw,Yes,Open,43,1976-02-01
1,M,Rasim Mancharov,Расим Манчаров,89.95,,,,,,135,145,-152.5,145,,,,,,,145,90,B,Raw,Yes,Masters 40-44,43,1976-02-01
2,M,Dmitriy Klyukvin,Дмитрий Клюквин,88.8,,,,,,140,-145,-145,140,,,,,,,140,90,B,Raw,Yes,Masters 40-44,42,1977-06-08
3,M,Denis Piskunov,Денис Пискунов,88.45,,,,,,-125,-132.5,132.5,132.5,,,,,,,132.5,90,B,Raw,Yes,Masters 40-44,42,1977-07-30
1,M,Vladimir Vitashov,Владимир Виташов,87.6,,,,,,-115,120,-122.5,120,,,,,,,120,90,B,Raw,Yes,Masters 55-59,56,1963-08-05
1,M,Pavel Kondratev,Павел Кондратьев,93.75,,,,,,60,70,-75,70,,,,,,,70,100,B,Raw,Yes,Teen 18-19,18,2001-09-23
1,M,Viktor Shlenchak,Виктор Шленчак,93.4,,,,,,160,165,170,170,,,,,,,170,100,B,Raw,Yes,Open,35,1984-04-22
2,M,Nikolay Merenchikov,Николай Меренчиков,98.1,,,,,,155,-162.5,-162.5,155,,,,,,,155,100,B,Raw,Yes,Open,29,1990-10-06
3,M,Aleksandr Dreyzin,Александр Дрейзин,97,,,,,,142,-150,150,150,,,,,,,150,100,B,Raw,Yes,Open,36,1983-04-17
4,M,Andrey Opolchentsev,Андрей Ополченцев,96.7,,,,,,130,140,,140,,,,,,,140,100,B,Raw,Yes,Open,26,1993-09-16
5,M,Denis Lutskiy,Денис Луцкий,98.3,,,,,,140,-150,-150,140,,,,,,,140,100,B,Raw,Yes,Open,34,1985-11-27
6,M,Vyacheslav Arkhipov #2,Вячеслав Архипов,98.9,,,,,,130,-140,-140,130,,,,,,,130,100,B,Raw,Yes,Open,24,1995-02-08
1,M,Mikhail Skvortsov,Михаил Скворцов,97.05,,,,,,125,132.5,-140,132.5,,,,,,,132.5,100,B,Raw,Yes,Masters 45-49,49,1970-04-19
1,M,Andrey Ivanov,Андрей Иванов,104.45,,,,,,160,-167.5,-167.5,160,,,,,,,160,110,B,Raw,Yes,Open,35,1983-12-18
2,M,Mikhail Mosyakov,Михаил Мосяков,103.55,,,,,,147.5,152.5,157.5,157.5,,,,,,,157.5,110,B,Raw,Yes,Open,31,1988-05-31
3,M,Andrey Ivchenko,Андрей Ивченко,104.45,,,,,,130,135,-140,135,,,,,,,135,110,B,Raw,Yes,Open,37,1982-11-05
DQ,M,Dmitriy Lysenko,Дмитрий Лысенко,109.6,,,,,,-185,-185,-185,,,,,,,,,110,B,Raw,Yes,Open,33,1986-04-07
1,M,Yuriy Ivanov #9,Юрий Иванов,107.95,,,,,,125,130,-137.5,130,,,,,,,130,110,B,Raw,Yes,Masters 40-44,44,1975-09-17
1,M,Sergey Trifonov,Сергей Трифонов,121.2,,,,,,170,177.5,-182.5,177.5,,,,,,,177.5,125,B,Raw,Yes,Open,33,1986-08-05
1,M,Timur Sakhibgareev,Тимур Сахибгареев,41.3,,,,,,22.5,25,27.5,27.5,,,,,,,27.5,52,B,Raw,No,Youth,10,2009-09-25
1,M,Aleksandr Isakov,Александр Исаков,67.5,,,,,,-110,115,122.5,122.5,,,,,,,122.5,67.5,B,Raw,No,Open,26,1993-01-15
1,M,Timofey Lazu,Тимофей Лазу,74.8,,,,,,142.5,147.5,150,150,,,,,,,150,75,B,Raw,No,Open,37,1982-01-13
1,M,Kirill Sosnin,Кирилл Соснин,79.45,,,,,,-135,140,-150,140,,,,,,,140,82.5,B,Raw,No,Open,33,1986-05-25
2,M,Sergey Karmalkov,Сергей Кармальков,81.05,,,,,,-135,-135,135,135,,,,,,,135,82.5,B,Raw,No,Open,38,1981-06-01
3,M,Aleksandr Evdokimov,Александр Евдокимов,78.3,,,,,,125,-135,-140,125,,,,,,,125,82.5,B,Raw,No,Open,28,1991-03-11
1,M,Pavel Rodin,Павел Родин,89.45,,,,,,165,175,-180,175,,,,,,,175,90,B,Raw,No,Open,31,1988-06-10
2,M,Roman Klishch,Роман Клищ,86.8,,,,,,150,160,-165,160,,,,,,,160,90,B,Raw,No,Open,27,1992-03-29
3,M,Nikita Kulpin,Никита Кульпин,88.6,,,,,,160,-170,-170,160,,,,,,,160,90,B,Raw,No,Open,26,1993-10-11
4,M,Evgeniy Dmitrik,Евгений Дмитрик,88.4,,,,,,140,150,-152.5,150,,,,,,,150,90,B,Raw,No,Open,39,1980-08-23
5,M,Ilya Agafonov,Илья Агафонов,86.85,,,,,,140,145,-150,145,,,,,,,145,90,B,Raw,No,Open,31,1988-03-12
1,M,Stanislav Kandaurov,Станислав Кандауров,93.3,,,,,,-200,200,-205,200,,,,,,,200,100,B,Raw,No,Open,29,1990-05-26
2,M,Ilya Korobov,Илья Коробов,95.4,,,,,,192.5,-197.5,-200,192.5,,,,,,,192.5,100,B,Raw,No,Open,39,1980-04-17
3,M,Aleksey Grigorev,Алексей Григорьев,96.6,,,,,,185,190,-200,190,,,,,,,190,100,B,Raw,No,Open,24,1995-07-29
DQ,M,Aleksandr Emelyanov,Александр Емельянов,96.1,,,,,,182.5,-187.5,-187.5,182.5,,,,,,,,100,B,Raw,No,Open,26,1993-05-03
5,M,Oleg Gunchenkov,Олег Гунченков,99.55,,,,,,-155,160,165,165,,,,,,,165,100,B,Raw,No,Open,28,1991-09-19
6,M,Vitaliy Turkin,Виталий Туркин,95.55,,,,,,150,160,-165,160,,,,,,,160,100,B,Raw,No,Open,26,1993-01-27
7,M,Vyacheslav Belushkov,Вячеслав Белушков,97.25,,,,,,-130,140,150,150,,,,,,,150,100,B,Raw,No,Open,39,1979-12-15
DQ,M,Dmitriy Velikzarov,Дмитрий Великзаров,94.9,,,,,,-170,-170,-175,,,,,,,,,100,B,Raw,No,Open,34,1985-04-01
1,M,Leonid Dostovalov,Леонид Достовалов,107.35,,,,,,155,167.5,-175,167.5,,,,,,,167.5,110,B,Raw,No,Juniors 20-23,21,1998-03-11
1,M,Vasiliy Markitantov,Василий Маркитантов,107.6,,,,,,205,212.5,-217.5,212.5,,,,,,,212.5,110,B,Raw,No,Open,39,1980-02-21
2,M,Vasiliy Kolybelin,Василий Колыбелин,108.7,,,,,,-195,195,202.5,202.5,,,,,,,202.5,110,B,Raw,No,Open,42,1976-12-27
3,M,Vadim Shchurov,Вадим Щуров,104.35,,,,,,190,197.5,-202.5,197.5,,,,,,,197.5,110,B,Raw,No,Open,29,1990-09-01
4,M,Aleksandr Abramov,Александр Абрамов,107.7,,,,,,180,-187.5,187.5,187.5,,,,,,,187.5,110,B,Raw,No,Open,28,1991-05-14
5,M,Denis Popov,Денис Попов,109.75,,,,,,170,177.5,182.5,182.5,,,,,,,182.5,110,B,Raw,No,Open,30,1989-05-18
6,M,Leonid Dostovalov,Леонид Достовалов,107.35,,,,,,155,167.5,-175,167.5,,,,,,,167.5,110,B,Raw,No,Open,21,1998-03-11
1,M,Vasiliy Kolybelin,Василий Колыбелин,108.7,,,,,,-195,195,202.5,202.5,,,,,,,202.5,110,B,Raw,No,Masters 40-44,42,1976-12-27
2,M,Roman Demidov,Роман Демидов,107.75,,,,,,140,-150,-150,140,,,,,,,140,110,B,Raw,No,Masters 40-44,43,1976-04-22
1,M,Dmitriy Lappalaynen,Дмитрий Лаппалайнен,115.7,,,,,,220,232,-240,232,,,,,,,232.5,125,B,Raw,No,Open,30,1989-06-01
2,M,Ilya Kalininskiy,Илья Калининский,113.3,,,,,,210,220,225,225,,,,,,,225,125,B,Raw,No,Open,30,1989-04-11
1,M,Oleg Krylov,Олег Крылов,129.9,,,,,,200,210,-215,210,,,,,,,210,140,B,Raw,No,Masters 45-49,46,1973-11-04
1,M,Dmitriy Patyupin,Дмитрий Патюпин,99.2,,,,,,250,-265,-265,250,,,,,,,250,100,B,Single-ply,Yes,Open,28,1991-11-28
1,M,Konstantin Kravtsov,Константин Кравцов,98.65,,,,,,220,230,235,235,,,,,,,235,100,B,Single-ply,No,Open,37,1982-10-26
1,F,Anastasiya Dmitrieva,Анастасия Дмитриева,55.8,,,,,,70,77.5,-82.5,77.5,,,,,,,77.5,56,B,Multi-ply,Yes,Open,34,1985-04-08
1,M,Vladimir Kurbatov,Владимир Курбатов,81,,,,,,155,165,175,175,,,,,,,175,82.5,B,Multi-ply,Yes,Open,39,1980-08-01
1,M,Aleksandr Petrenko,Александр Петренко,82.4,,,,,,-302.5,-302.5,302.5,302.5,,,,,,,302.5,82.5,B,Multi-ply,No,Open,29,1990-05-27
1,M,Evgeniy Vasilev,Евгений Васильев,84.55,,,,,,-260,-270,270,270,,,,,,,270,90,B,Multi-ply,No,Open,36,1983-08-15
1,M,Andrey Anshukov,Андрей Аншуков,106.5,,,,,,225,232.5,-237.5,232.5,,,,,,,232.5,110,B,Multi-ply,No,Open,38,1981-11-04
1,M,Dmitriy Smirnov,Дмитрий Смирнов,127.7,,,,,,320,-340,-360,320,,,,,,,320,140,B,Multi-ply,No,Open,36,1982-12-12
1,F,Anna Astrakhantseva,Анна Астраханцева,47.85,,,,,,,,,,,115,,,115,,115,48,D,Raw,Yes,Open,23,1996-09-06
1,F,Elena Avdeeva,Елена Авдеева,54.1,,,,,,,,,,,90,97.5,100,100,,100,56,D,Raw,Yes,Open,37,1982-02-17
1,F,Ekaterina Mikhaylova,Екатерина Михайлова,52.1,,,,,,,,,,,110,-115,115,115,,115,56,D,Raw,Yes,Masters 40-44,40,1979-08-18
1,F,Oksana Balabatko,Оксана Балабатько,59.05,,,,,,,,,,,65,70,75,75,,75,60,D,Raw,Yes,Teen 13-15,14,2005-01-24
1,F,Anastasiya Chernyavskaya,Анастасия Чернявская,59.5,,,,,,,,,,,145,152.5,157.5,157.5,,157.5,60,D,Raw,Yes,Open,23,1995-12-13
1,F,Olga Klochko,Ольга Клочко,57.45,,,,,,,,,,,70,72.5,80,80,,80,60,D,Raw,Yes,Masters 40-44,41,1978-01-15
1,F,Galina Kozlova,Галина Козлова,67.5,,,,,,,,,,,-140,140,160,160,,160,67.5,D,Raw,Yes,Open,29,1990-04-30
2,F,Mariya Tyagnyryadko,Мария Тягнырядко,65.3,,,,,,,,,,,-120,120,130,130,,130,67.5,D,Raw,Yes,Open,33,1986-02-08
3,F,Anna Moskalenko,Анна Москаленко,63.9,,,,,,,,,,,110,115,122.5,122.5,,122.5,67.5,D,Raw,Yes,Open,31,1988-01-24
4,F,Alina Sysoenko,Алина Сысоенко,62.5,,,,,,,,,,,-80,90,100,100,,100,67.5,D,Raw,Yes,Open,28,1991-05-02
1,F,Irina Darsaliya,Ирина Дарсалия,120.7,,,,,,,,,,,55,70,90,90,,90,90+,D,Raw,Yes,Masters 50-54,53,1966-09-05
1,M,Ilya Eremin,Илья Еремин,67.5,,,,,,,,,,,150,160,170,170,,170,67.5,D,Raw,Yes,Open,24,1995-10-04
1,M,Sergey Timoshchuk,Сергей Тимощук,70.05,,,,,,,,,,,145,160,175,175,,175,75,D,Raw,Yes,Juniors 20-23,20,1998-12-11
1,M,Gapur Magomedov,Гапур Магомедов,74.8,,,,,,,,,,,182.5,190,-192.5,190,,190,75,D,Raw,Yes,Open,30,1989-04-10
1,M,Andrey Kulgin,Андрей Кулгин,82.05,,,,,,,,,,,225,230,-240,230,,230,82.5,D,Raw,Yes,Open,33,1986-10-02
2,M,Andrey Budyanenko,Андрей Будяненко,82.5,,,,,,,,,,,200,-210,-210,200,,200,82.5,D,Raw,Yes,Open,36,1983-02-06
1,M,Andrey Roykhka,Андрей Ройхка,84.85,,,,,,,,,,,175,190,-200,190,,190,90,D,Raw,Yes,Teen 18-19,18,2001-06-22
1,M,Evgeniy Tagirov,Евгений Тагиров,87.55,,,,,,,,,,,220,230,250,250,,250,90,D,Raw,Yes,Open,25,1994-10-20
2,M,Andrey Pavlyuchenko,Андрей Павлюченко,88.05,,,,,,,,,,,200,220,225,225,,225,90,D,Raw,Yes,Open,29,1990-04-20
1,M,Timofey Ivanov,Тимофей Иванов,108.5,,,,,,,,,,,215,225,235,235,,235,110,D,Raw,Yes,Open,34,1985-09-20
1,F,Mariya Efimova,Мария Ефимова,57.45,,,,,,,,,,,85,95,-100,95,,95,60,D,Raw,No,Open,32,1986-12-28
1,F,Antonina Sboynova,Антонина Сбойнова,66.6,,,,,,,,,,,145,150,160,160,161,160,67.5,D,Raw,No,Open,45,1974-08-01
2,F,Anastasiya Kuznetsova,Анастасия Кузнецова,67.25,,,,,,,,,,,120,130,140,140,,140,67.5,D,Raw,No,Open,31,1988-02-08
1,F,Antonina Sboynova,Антонина Сбойнова,66.6,,,,,,,,,,,145,150,160,160,161,160,67.5,D,Raw,No,Masters 45-49,45,1974-08-01
1,M,Sergey Novikov,Сергей Новиков,89.5,,,,,,,,,,,230,-260,260,260,,260,90,D,Raw,No,Open,32,1987-10-26
2,M,Vadim Avetisyan,Вадим Аветисян,89.35,,,,,,,,,,,250,,,250,,250,90,D,Raw,No,Open,39,1980-06-18
1,M,Aleksandr Mikhaylov,Александр Михайлов,88.6,,,,,,,,,,,140,145,,145,,145,90,D,Raw,No,Masters 60-64,60,1958-12-09
1,M,Aleksandr Emelyanov,Александр Емельянов,96.1,,,,,,,,,,,255,-260,,255,,255,100,D,Raw,No,Open,26,1993-05-03
DQ,M,Aleksandr Malikov,Александр Маликов,99.9,,,,,,,,,,,-280,-280,-280,,,,100,D,Raw,No,Masters 45-49,46,1972-12-21
1,M,Denis Popov,Денис Попов,109.75,,,,,,,,,,,260,270,280,280,,280,110,D,Raw,No,Open,30,1989-05-18
DQ,M,Sergey Gusev,Сергей Гусев,109.7,,,,,,,,,,,-305,,,,,,110,D,Raw,No,Open,32,1987-03-18
1,M,Aleksandr Komkov,Александр Комков,121.7,,,,,,,,,,,290,,,290,,290,125,D,Raw,No,Open,36,1983-11-26
1,M,Aleksey Kostylev,Алексей Костылев,116.9,,,,,,,,,,,270,290,300,300,,300,125,D,Raw,No,Masters 45-49,46,1973-09-04
