Place,Name,CyrillicName,BirthYear,WeightClassKg,BodyweightKg,Best3BenchKg,TotalKg,Event,Equipment,Sex,Division
1,Olesya Vracheva,Олеся Врачева,1990,63,61.4,90,90,B,Raw,F,Open
NS,Svetlana Goncharova,Светлана Гончарова,1995,63,,,,B,Raw,F,Open
NS,Natalya Ustinova,Наталья Устинова,1996,63,,,,B,Raw,F,Open
1,Zhanna Martynova,Жанна Мартынова,1966,72,65.5,82.5,82.5,B,Raw,F,Open
2,Anna Bessonova,Анна Бессонова,1998,72,65.9,50,50,B,Raw,F,Open
3,Svetlana Chepel,Светлана Чепель,1965,72,70,42.5,42.5,B,Raw,F,Open
4,Galina Shportenko,Галина Шпортенко,1970,63,59.9,30,30,B,Raw,F,Open
1,Alevtina Koryagina,Алевтина Корягина,1970,84,74.6,37.5,37.5,B,Raw,F,Open
NS,Anastasiya Minaeva,Анастасия Минаева,1998,84,,,,B,Raw,F,Open
1,Tatyana Podolskaya,Татьяна Подольская,1971,84+,94,72.5,72.5,B,Raw,F,Open
1,Oleg Tikhonov,Олег Тихонов,1991,59,58.2,90,90,B,Raw,M,Open
2,Norik Sarangyan,Норик Сарангян,1996,59,55.5,82.5,82.5,B,Raw,M,Open
3,Vyacheslav Khusainov,Вячеслав Хусаинов,1999,59,56.5,70,70,B,Raw,M,Open
4,Daniil Moroz,Даниил Мороз,2001,59,54.3,67.5,67.5,B,Raw,M,Open
5,Sergey Novikov,Сергей Новиков,1997,59,53.7,65,65,B,Raw,M,Open
6,Aleksandr Lipovtsev,Александр Липовцев,2000,59,57.7,65,65,B,Raw,M,Open
1,Aleksandr Gapuzin,Александр Гапузин,1988,66,64.9,135,135,B,Raw,M,Open
2,Konstantin Vidulin,Константин Видулин,1988,66,64.4,117.5,117.5,B,Raw,M,Open
3,Artem Kravkov,Артем Кравков,1997,66,65.1,95,95,B,Raw,M,Open
4,Ivan Belov,Иван Белов,2000,66,62.3,75,75,B,Raw,M,Open
5,Dmitriy Derinov,Дмитрий Деринов,1999,66,61.1,65,65,B,Raw,M,Open
1,Svyatoslav Panasyuk,Святослав Панасюк,1993,74,73.3,125,125,B,Raw,M,Open
2,Nikolay Arkhipov,Николай Архипов,1998,74,73.6,102.5,102.5,B,Raw,M,Open
3,Ivan Karnyushin,Иван Карнюшин,1986,74,70,95,95,B,Raw,M,Open
4,Pavel Kondakov,Павел Кондаков,1997,74,72.9,95,95,B,Raw,M,Open
5,Kirill Fofonov,Кирилл Фофонов,1997,74,66.8,87.5,87.5,B,Raw,M,Open
6,Ivan Khokhlov,Иван Хохлов,1998,74,73.8,87.5,87.5,B,Raw,M,Open
NS,Aleksey Morozov,Алексей Морозов,1998,74,,,,B,Raw,M,Open
NS,Andrey Zhukotonskiy,Андрей Жукотонский,1998,74,,,,B,Raw,M,Open
1,Andrey Marugin,Андрей Маругин,1988,83,83,172.5,172.5,B,Raw,M,Open
2,Valeriy Lupikov,Валерий Лупиков,1976,83,82.3,127.5,127.5,B,Raw,M,Open
3,Vitaliy Zubarev,Виталий Зубарев,1972,83,81,125,125,B,Raw,M,Open
4,Oleg Buyalskiy,Олег Буяльский,1997,83,82.8,115,115,B,Raw,M,Open
5,Andrey Leonov,Андрей Леонов,1997,83,82.4,107.5,107.5,B,Raw,M,Open
6,Aleksey Ageev,Алексей Агеев,1998,83,78,100,100,B,Raw,M,Open
NS,Andrey Vasilev,Андрей Васильев,1984,83,,,,B,Raw,M,Open
NS,Dmitriy Kochura,Дмитрий Кочура,1992,83,,,,B,Raw,M,Open
NS,Vladimir Orlov,Владимир Орлов,1985,83,,,,B,Raw,M,Open
1,Maksim Belyanskiy,Максим Белянский,1983,93,86.2,175,175,B,Raw,M,Open
2,Konstantin Podshebyakin,Константин Подшебякин,1970,93,92,155,155,B,Raw,M,Open
3,Andrey Epifanov,Андрей Епифанов,1968,93,87.3,155,155,B,Raw,M,Open
4,Evgeniy Zimkin,Евгений Зимкин,1990,93,91.1,155,155,B,Raw,M,Open
5,Aleksey Zhurkov,Алексей Журков,1985,93,92,145,145,B,Raw,M,Open
NS,Evgeniy Ivashkin,Евгений Ивашкин,1982,93,,,,B,Raw,M,Open
NS,Ruslan Pochveruk,Руслан Почверук,1993,93,,,,B,Raw,M,Open
NS,Vitaliy Marin,Виталий Марьин,1988,93,,,,B,Raw,M,Open
NS,Dmitriy Evteev,Дмитрий Евтеев,1997,93,,,,B,Raw,M,Open
1,Evgeniy Tarasov,Евгений Тарасов,1987,105,103.4,192.5,192.5,B,Raw,M,Open
2,Evgeniy Shoshin,Евгений Шошин,1977,105,100.7,170,170,B,Raw,M,Open
3,Mikhail Pogoreltsev,Михаил Погорельцев,1986,105,93.9,142.5,142.5,B,Raw,M,Open
4,Mikhail Zhuravlev,Михаил Журавлев,1983,105,97.3,137.5,137.5,B,Raw,M,Open
5,Denis Imanov,Денис Иманов,1995,105,97.6,135,135,B,Raw,M,Open
NS,Igor Makarov,Игорь Макаров,1993,105,,,,B,Raw,M,Open
NS,Denis Shichkov,Денис Шичков,1982,105,,,,B,Raw,M,Open
NS,Nikolay Leksin,Николай Лексин,1981,105,,,,B,Raw,M,Open
1,Nikolay Mashtakov,Николай Маштаков,1982,120,109.3,172.5,172.5,B,Raw,M,Open
2,Igor Troshin,Игорь Трошин,1983,120,107.8,170,170,B,Raw,M,Open
3,Vladimir Golovlev,Владимир Головлев,1987,120,111,170,170,B,Raw,M,Open
4,Sergey Paramonov,Сергей Парамонов,1992,120,113.3,140,140,B,Raw,M,Open
NS,Ivan Beresnev,Иван Береснев,1994,120,,,,B,Raw,M,Open
