Sex,WeightClassKg,EntryDate,Name,BirthDate,Country,Bench1Kg,Bench2Kg,Bench3Kg,Best3BenchKg,Bench4Kg,TotalKg,BodyweightKg,Event,Equipment,Division,Place
M,49,2019-02-08,Omar Sami Hamadeh Qarada,1981-03-01,Jordan,165,-175,-175,165,,165,47.43,B,Raw,Open,1
M,49,2019-02-08,Parmjeet Kumar,1992-02-02,India,135,-140,-140,135,,135,44.02,B,Raw,Open,5
M,49,2019-02-08,Lucas Manoel Dos Santos,2001-11-20,Brazil,108,113,118,118,,118,47.91,B,Raw,Open,9
M,49,2019-02-08,Nopphakhun Ngaopatcha,2003-10-19,Thailand,-50,50,60,60,,60,40.02,B,Raw,Open,13
M,49,2019-02-08,Parvin Mammadov,1995-02-16,Azerbaijan,138,-145,145,145,,145,46.63,B,Raw,Open,2
M,49,2019-02-08,Hadj Ahmed Biour,1983-03-09,Algeria,135,-140,-141,135,,135,46.84,B,Raw,Open,6
M,49,2019-02-08,Zakhar Buimov,2001-08-22,Kazakhstan,86,-91,-91,86,,86,47.7,B,Raw,Open,10
M,49,2019-02-08,Bagdat Tanatkhanov,1999-11-11,Kazakhstan,40,45,-50,45,,45,39.08,B,Raw,Open,14
M,49,2019-02-08,Joao Maria Franca Junior,1995-10-20,Brazil,137,141,144,144,,144,48.26,B,Raw,Open,3
M,49,2019-02-08,Mohammad Alshnaiti,2001-10-10,Jordan,120,-125,125,125,,125,44.24,B,Raw,Open,7
M,49,2019-02-08,Mustapa Annamuhammedov,1999-04-25,Turkmenistan,85,-90,-90,85,,85,47.62,B,Raw,Open,11
M,49,2019-02-08,Abdullah Kayapinar,1992-10-02,Turkey,138,142,-145,142,,142,38.27,B,Raw,Open,4
M,49,2019-02-08,Boryslav Nekrotiuk,2000-06-23,Ukraine,117,121,-126,121,,121,47.58,B,Raw,Open,8
M,49,2019-02-08,Pietro Gianni Lombardo,1991-10-05,Italy,69,71,75,75,,75,47.4,B,Raw,Open,12
M,49,2019-02-08,Mouayad Manzour,1996-11-11,Syria,,,,,,,,B,Raw,Open,DQ
M,49,2019-02-08,Yahya Abou Mughdeb,1979-09-15,Singapore,,,,,,,,B,Raw,Open,DQ
M,54,2019-02-08,Bruno Pinheiro Carra,1989-01-20,Brazil,156,161,-167,161,,161,53.34,B,Raw,Open,3
M,54,2019-02-08,Marcos Gabriel Cruzato,1999-02-05,Brazil,95,-98,98,98,,98,52.82,B,Raw,Open,7
M,54,2019-02-08,Serkan Cakmaz,1996-02-01,Turkey,-143,-143,-143,,,,52.52,B,Raw,Open,DQ
M,54,2019-02-08,Amorntep Pongsao,1995-11-13,Thailand,130,135,-140,135,,135,52.73,B,Raw,Open,4
M,54,2019-02-08,Raffaele Marmorale,1990-01-16,Italy,-92,92,-94,92,,92,53.06,B,Raw,Open,8
M,54,2019-02-08,Taha Adel Mohamed Abdelmajid,1987-06-08,Egypt,155,160,166,166,,166,53.04,B,Raw,Open,1
M,54,2019-02-08,Vasyl Rozhko,1998-01-13,Ukraine,-115,115,-120,115,,115,52.4,B,Raw,Open,5
M,54,2019-02-08,Osama Albalushi,2003-01-01,UAE,74,80,-82,80,,80,49.29,B,Raw,Open,9
M,54,2019-02-08,Dimitrios Bakochristos,1983-04-16,Greece,155,161,166,166,,166,53.2,B,Raw,Open,2
M,54,2019-02-08,Paolo Agosti,1991-05-13,Italy,-112,-112,115,115,,115,52.76,B,Raw,Open,6
M,54,2019-02-08,Azizbek Zamirbek Uluu,2002-09-28,Kyrgyzstan,70,-75,75,75,,75,49.51,B,Raw,Open,10
M,59,2019-02-09,Denys Ostapuk,1999-09-05,Ukraine,111,116,-125,116,,116,57.99,B,Raw,Open,3
M,59,2019-02-09,Aphiwat Nannong,1993-07-26,Thailand,-50,-50,-50,,,,55.51,B,Raw,Open,DQ
M,59,2019-02-09,Maxim Ten,2002-12-11,Kazakhstan,90,95,100,100,,100,56.8,B,Raw,Open,4
M,59,2019-02-09,Sherif Osman,1982-09-15,Egypt,190,200,-207,200,,200,58.66,B,Raw,Open,1
M,59,2019-02-09,Phutachat Panomkhet,2004-09-16,Thailand,-75,-75,75,75,,75,58.33,B,Raw,Open,5
M,59,2019-02-09,Kuldeep Singh,1983-12-02,India,125,-131,-131,125,,125,58.04,B,Raw,Open,2
M,59,2019-02-09,Suhil Masaud,1998-07-25,Lebanon,,,,,,,,B,Raw,Open,DQ
M,65,2019-02-09,Bonnie Bunyau Gustin,1999-06-03,Malaysia,170,180,190,190,,190,64.26,B,Raw,Open,2
M,65,2019-02-09,Ludovico Giuseppe Forte,1991-12-13,Italy,135,-138,140,140,,140,64.24,B,Raw,Open,6
M,65,2019-02-09,Beomjo Seo,1999-03-21,South Korea,93,98,-105,98,,98,64.49,B,Raw,Open,10
M,65,2019-02-09,Mohammad Tarbash,1984-06-09,Jordan,181,-186,-189,181,,181,64.02,B,Raw,Open,3
M,65,2019-02-09,Giuseppe Colantuoni,1993-04-30,Italy,123,127,-130,127,,127,63.94,B,Raw,Open,7
M,65,2019-02-09,Marek Trykacz,1985-10-06,Poland,176,-179,179,179,,179,63.64,B,Raw,Open,4
M,65,2019-02-09,Heleno Victor Silva,1999-09-09,Brazil,110,115,-120,115,,115,64.02,B,Raw,Open,8
M,65,2019-02-09,Hocine Bettir,1990-08-02,Algeria,184,189,191,191,,191,64.24,B,Raw,Open,1
M,65,2019-02-09,Alaa Alyousef,1983-04-27,Syria,-145,-145,145,145,,145,63.63,B,Raw,Open,5
M,65,2019-02-09,Sayed Hussain Agha Sadaat,1987-12-04,Afghanistan,-90,100,-105,100,,100,64.97,B,Raw,Open,9
M,65,2019-02-09,Abraheem Othman,1993-07-10,Lebanon,,,,,,,,B,Raw,Open,DQ
M,72,2019-02-10,Iskandar Tursunbaev,1994-01-28,Uzbekistan,165,172,-175,172,,172,67.76,B,Raw,Open,4
M,72,2019-02-10,Thongsa Marasri,1975-01-30,Thailand,160,-180,-180,160,,160,71.28,B,Raw,Open,8
M,72,2019-02-10,Hasan Alderazi,1976-11-16,Bahrain,-120,-120,120,120,,120,71.63,B,Raw,Open,12
M,72,2019-02-10,Rasool Mohsin,1987-11-17,Iraq,200,210,220,220,-230,220,71.7,B,Raw,Open,1
M,72,2019-02-10,Donato Telesca,1999-02-05,Italy,159,162,167,167,170,167,71.55,B,Raw,Open,5
M,72,2019-02-10,Saif Mohamed Zaabi,1979-08-30,UAE,148,153,155,155,,155,68.04,B,Raw,Open,9
M,72,2019-02-10,Mikis Stamatidis,1987-09-28,Greece,110,115,-118,115,,115,70.03,B,Raw,Open,13
M,72,2019-02-10,Mahmoud Attia,1981-08-12,Egypt,180,185,-190,185,,185,69.14,B,Raw,Open,2
M,72,2019-02-10,Ezequiel Correa,1987-10-23,Brazil,163,167,-171,167,,167,71.8,B,Raw,Open,6
M,72,2019-02-10,Mohamed Aly,2000-07-15,Egypt,130,135,140,140,,140,69.44,B,Raw,Open,10
M,72,2019-02-10,Sergey Meladze,1980-04-01,Turkmenistan,175,-177,-177,175,,175,71.4,B,Raw,Open,3
M,72,2019-02-10,Matteo Cattini,1984-07-17,Italy,147,154,160,160,,160,71.02,B,Raw,Open,7
M,72,2019-02-10,Alexandr Daskov,1987-03-12,Kazakhstan,125,-130,-133,125,,125,67.42,B,Raw,Open,11
M,72,2019-02-10,Mosab Gharsalla,1990-04-27,Lebanon,,,,,,,,B,Raw,Open,DQ
M,72,2019-02-10,Jai Deep,1989-12-30,India,,,,,,,,B,Raw,Open,DQ
M,80,2019-02-10,Michael Yule,1978-12-24,UK,180,186,188,188,,188,77.71,B,Raw,Open,3
M,80,2019-02-10,Chinnaphop Khamdam,1993-12-31,Thailand,160,-165,-165,160,,160,78.05,B,Raw,Open,7
M,80,2019-02-10,Jingeun Choi,1982-02-06,South Korea,133,-138,140,140,,140,79.75,B,Raw,Open,11
M,80,2019-02-10,Ziad Androun,1986-01-02,Syria,156,-160,162,162,,162,77.65,B,Raw,Open,4
M,80,2019-02-10,Denis Raiul,1992-01-12,Moldova,150,156,-161,156,,156,78.56,B,Raw,Open,8
M,80,2019-02-10,Vinicius de Freitas,1999-07-27,Brazil,112,-120,-120,112,,112,78.73,B,Raw,Open,12
M,80,2019-02-10,Mohamed Sobhy Shaaban Elelfat,1979-06-25,Egypt,210,220,225,225,,225,79.15,B,Raw,Open,1
M,80,2019-02-10,Maksat Argymbaev,1985-10-26,Kyrgyzstan,156,161,-166,161,,161,77.21,B,Raw,Open,5
M,80,2019-02-10,Yegor Bolinger,1994-04-07,Kazakhstan,145,151,-156,151,,151,79.15,B,Raw,Open,9
M,80,2019-02-10,Hamad Alhammadi,1996-07-31,UAE,85,90,95,95,,95,79.72,B,Raw,Open,13
M,80,2019-02-10,Gkremislav Moysiadis,1978-09-26,Greece,180,187,189,189,,189,75.42,B,Raw,Open,2
M,80,2019-02-10,Ma Hussein Mat Noh,1980-08-05,Malaysia,-160,-160,161,161,,161,78.96,B,Raw,Open,6
M,80,2019-02-10,Mohammad Fahim Rahimi,1980-12-09,Afghanistan,-130,-140,140,140,,140,78.3,B,Raw,Open,10
M,80,2019-02-10,Wuttipong Jaikla,1984-02-13,Thailand,65,70,-75,70,,70,76.26,B,Raw,Open,14
M,88,2019-02-11,Abdelkareem Mohmmad Ahmad Khattab,1991-09-04,Jordan,-215,-220,-220,,,,84.1,B,Raw,Open,DQ
M,88,2019-02-11,Farhod Umirzakov,1996-05-16,Uzbekistan,180,190,-200,190,,190,83.9,B,Raw,Open,3
M,88,2019-02-11,Adel Shanbih,1989-12-13,UAE,160,164,-167,164,,164,85.69,B,Raw,Open,7
M,88,2019-02-11,Joao Pedro Santos,2000-03-13,Brazil,-115,115,121,121,,121,86.59,B,Raw,Open,11
M,88,2019-02-11,Sachin Chaudhary,1983-09-30,India,-200,-200,-200,,,,87.9,B,Raw,Open,DQ
M,88,2019-02-11,Abderrahim El Ammari,1976-12-01,Morocco,180,-187,-190,180,,180,85.1,B,Raw,Open,4
M,88,2019-02-11,Dovletyar Uremov,1984-06-12,Turkmenistan,-155,155,-160,155,,155,86.73,B,Raw,Open,8
M,88,2019-02-11,Chaichet Haemawan,1998-09-17,Thailand,102,110,-115,110,,110,86.72,B,Raw,Open,12
M,88,2019-02-11,Hany Abdelhady,1980-05-19,Egypt,201,-205,207,207,,207,86.89,B,Raw,Open,1
M,88,2019-02-11,Sedric Roussel Watchou Kouokam,1986-02-19,Hungary,170,175,-181,175,,175,87.05,B,Raw,Open,5
M,88,2019-02-11,Joginder Singh,1986-03-04,India,-148,-152,153,153,,153,84.08,B,Raw,Open,9
M,88,2019-02-11,Evanio Rodrigues da Silva,1984-09-02,Brazil,-200,200,-206,200,,200,84.15,B,Raw,Open,2
M,88,2019-02-11,Stefan Rosca,1990-08-06,Moldova,-170,-170,170,170,,170,87.75,B,Raw,Open,6
M,88,2019-02-11,Mohamed Hussien,1999-02-13,Egypt,140,145,-152,145,,145,85.15,B,Raw,Open,10
M,88,2019-02-11,Abdulrraziq Albaebaa,1974-01-20,,,,,,,,,B,Raw,Open,DQ
M,97,2019-02-11,Mohammed Khamis Khalaf,1969-02-23,UAE,210,-220,220,220,,220,91.69,B,Raw,Open,1
M,97,2019-02-11,Nuriddin Davlatov,1989-02-19,Uzbekistan,-190,-195,196,196,,196,95.31,B,Raw,Open,5
M,97,2019-02-11,Adilet Kamchybekov,1992-03-26,Kyrgyzstan,-170,170,-176,170,,170,96.42,B,Raw,Open,9
M,97,2019-02-11,Mu'taz Zakaria Daoud Al Juneidi,1976-04-02,Jordan,-212,-212,212,212,,212,95.42,B,Raw,Open,2
M,97,2019-02-11,Nurlan Babajanov,1992-04-11,Azerbaijan,-190,190,-201,190,,190,94.34,B,Raw,Open,6
M,97,2019-02-11,Khaled Alhammadi,1992-02-27,UAE,-135,135,-145,135,,135,95.98,B,Raw,Open,10
M,97,2019-02-11,Arun Ranga,1993-12-11,India,-183,-184,-184,,,,90.83,B,Raw,Open,DQ
M,97,2019-02-11,Mohamed Elsayed Mohamed Ahmed,1982-01-18,Egypt,-207,207,211,211,,211,95.5,B,Raw,Open,3
M,97,2019-02-11,Varinder Singh,1987-01-13,India,170,177,183,183,,183,88.82,B,Raw,Open,7
M,97,2019-02-11,Saud Yar Mohammed Abdulaziz Rahmatalla,2001-11-03,UAE,-60,-60,60,60,,60,90.77,B,Raw,Open,11
M,97,2019-02-11,Kalai Vanen R Nadesan,1959-02-17,Singapore,-155,-155,-160,,,,96.1,B,Raw,Open,DQ
M,97,2019-02-11,Thaer Al-Ali,1976-01-03,Iraq,-208,208,-212,208,,208,95.87,B,Raw,Open,4
M,97,2019-02-11,Bayramgeldi Saparov,1972-11-18,Turkmenistan,170,-175,175,175,,175,89.49,B,Raw,Open,8
M,97,2019-02-11,Patrique Dankers,1976-06-11,Netherlands,,,,,,,,B,Raw,Open,DQ
M,107,2019-02-12,Faruk Ozturk,1997-07-27,Turkey,-196,-196,-196,,,,103.25,B,Raw,Open,DQ
M,107,2019-02-12,Akaki Jintcharadze,1987-07-19,Georgia,193,198,202,202,,202,101.36,B,Raw,Open,4
M,107,2019-02-12,Sodnompiljee Enkhbayar,1985-08-24,Mongolia,225,235,240,240,,240,104.81,B,Raw,Open,1
M,107,2019-02-12,Mateus de Assis Silva,1997-05-27,Brazil,196,202,-205,202,,202,103.91,B,Raw,Open,5
M,107,2019-02-12,Zhyrgalbek Orosbaev,1993-07-19,Kyrgyzstan,202,-205,206,206,,206,106.57,B,Raw,Open,2
M,107,2019-02-12,Mohammad Abuarar,1996-02-02,Jordan,170,175,-183,175,,175,97.09,B,Raw,Open,6
M,107,2019-02-12,Waleed Mahyoub,1986-02-26,UAE,-85,-90,-95,,,,97.88,B,Raw,Open,DQ
M,107,2019-02-12,Abbas Naisan,1983-03-14,Iraq,195,-202,203,203,,203,104.94,B,Raw,Open,3
M,107,2019-02-12,Nuriddin Mengziyaev,1998-05-07,Uzbekistan,-160,-160,160,160,,160,105.55,B,Raw,Open,7
M,107,2019-02-12,Ahmed Khamis Albaloushi,1974-12-01,UAE,,,,,,,,B,Raw,Open,DQ
M,107+,2019-02-12,Navruzbek Abdurasulov,1992-04-02,Uzbekistan,-210,-210,-210,,,,107.58,B,Raw,Open,DQ
M,107+,2019-02-12,Shamo Aslanov,1983-03-23,Azerbaijan,-206,-206,206,206,,206,143.28,B,Raw,Open,3
M,107+,2019-02-12,Sandor Sas,1981-02-09,Hungary,,,,,,,108.57,B,Raw,Open,DQ
M,107+,2019-02-12,Mohamed Almazrouei,1986-07-15,UAE,-100,108,-115,108,,108,124.85,B,Raw,Open,4
M,107+,2019-02-12,Jamil Saleh Elshebli,1979-04-09,Jordan,225,231,232,232,,232,128.41,B,Raw,Open,1
M,107+,2019-02-12,Konstantinos Dimou,1981-02-02,Greece,222,231,-233,231,,231,146.71,B,Raw,Open,2
M,107+,2019-02-12,Faris Saadoon Abed Al-Ageeli,1974-05-20,Iraq,,,,,,,,B,Raw,Open,DQ
F,41,2019-02-08,Samira Guerioua,1984-03-13,Algeria,78,-82,-84,78,,78,39.9,B,Raw,Open,2
F,41,2019-02-08,Kseniia Tokar,2001-11-23,Ukraine,-60,-60,60,60,,60,39.9,B,Raw,Open,6
F,41,2019-02-08,Lara Aparecida de Lima,2003-04-25,Brazil,71,73,-78,73,,73,37.5,B,Raw,Open,3
F,41,2019-02-08,Yuliya Petrusseva,1976-05-21,Kazakhstan,58,-62,-62,58,,58,40,B,Raw,Open,7
F,41,2019-02-08,Katalin Engelhardt,1971-03-17,Hungary,-48,-48,-51,,,,39.9,B,Raw,Open,DQ
F,41,2019-02-08,Tursynay Kabyl,2000-01-07,Kazakhstan,57,61,-63,61,,61,39.8,B,Raw,Open,4
F,41,2019-02-08,Daria Kobylynska,2004-04-19,Ukraine,48,-52,52,52,,52,39.4,B,Raw,Open,8
F,41,2019-02-08,Noura Baddour,1984-11-13,Syria,82,-84,-84,82,,82,36.8,B,Raw,Open,1
F,41,2019-02-08,Adra Lamia,1986-08-05,Algeria,61,-65,-65,61,,61,39.9,B,Raw,Open,5
F,45,2019-02-09,Nazmiye Muslu Muratlı,1979-06-13,Turkey,100,-108,,100,,100,44.1,B,Raw,Open,1
F,45,2019-02-09,Nur Aini Bte Mohamad Yasli,1992-03-05,Singapore,-54,60,65,65,,65,44.2,B,Raw,Open,5
F,45,2019-02-09,Ni Nengah Widiasih,1992-12-12,Indonesia,92,95,97,97,,97,42.6,B,Raw,Open,2
F,45,2019-02-09,Roza Dyussebayeva,1983-02-01,Kazakhstan,49,-54,-54,49,,49,42.8,B,Raw,Open,6
F,45,2019-02-09,Justyna Kozdryk,1980-03-04,Poland,90,94,97,97,,97,43.4,B,Raw,Open,3
F,45,2019-02-09,Sakina Khatun,1989-06-20,India,-84,-84,-84,,,,43.9,B,Raw,Open,DQ
F,45,2019-02-09,Maria Rizonaide Da Silva,1982-02-23,Brazil,72,77,-80,77,,77,42.8,B,Raw,Open,4
F,45,2019-02-09,Alina Solodukhina,1994-01-01,Kazakhstan,,,,,,,,B,Raw,Open,DQ
F,50,2019-02-09,Lidiya Solovyova,1978-01-21,Ukraine,105,-109,-112,105,,105,49.4,B,Raw,Open,2
F,50,2019-02-09,Olivia Broome,2001-06-13,UK,87,90,92,92,,92,49.9,B,Raw,Open,3
F,50,2019-02-09,Halima Lemtakhem,1983-02-20,Morocco,-83,-83,-83,,,,49.4,B,Raw,Open,DQ
F,50,2019-02-09,Maria Oliveira,1974-05-03,Brazil,83,87,-92,87,,87,48.3,B,Raw,Open,4
F,50,2019-02-09,Rehab Ahmed,1991-03-02,Egypt,112,117,-122,117,,117,49,B,Raw,Open,1
F,50,2019-02-09,Katalin Mezei,1979-09-28,Hungary,63,-65,-65,63,,63,48.7,B,Raw,Open,5
F,55,2019-02-09,Parwana Arifi,1991-07-31,Afghanistan,-48,-50,-51,,,,51.57,B,Raw,Open,DQ
F,55,2019-02-09,Besra Duman,2001-01-10,Turkey,110,-113,-115,110,,110,54.17,B,Raw,Open,3
F,55,2019-02-09,Natela Gamidova,1977-09-02,Georgia,-47,-47,47,47,,47,53.39,B,Raw,Open,7
F,55,2019-02-09,Najat El Garraa,1982-07-27,Morocco,-100,-100,-100,,,,53.77,B,Raw,Open,DQ
F,55,2019-02-09,Rani Puji Astuti,1983-03-10,Indonesia,-80,-82,82,82,,82,53.54,B,Raw,Open,4
F,55,2019-02-09,Maryam Alzeyoudi,1995-08-02,UAE,40,45,-50,45,,45,52.35,B,Raw,Open,8
F,55,2019-02-09,Mariana Shevchuk,1996-05-22,Ukraine,-127,127,131,131,-133,131,53.9,B,Raw,Open,1
F,55,2019-02-09,Mozah Alzeyoudi,1992-10-18,UAE,70,74,77,77,,77,50.42,B,Raw,Open,5
F,55,2019-02-09,Ruza Kuzieva,1994-03-12,Uzbekistan,105,110,-114,110,,110,51.46,B,Raw,Open,2
F,55,2019-02-09,Wandi Kongmuang,1967-05-05,Thailand,75,-81,-82,75,,75,53.3,B,Raw,Open,6
F,61,2019-02-10,Yasemin Ceylan Baydar,1987-03-10,Turkey,-100,100,-108,100,,100,57.89,B,Raw,Open,3
F,61,2019-02-10,Nicola Dore,1988-06-17,Ireland,65,67,68,68,,68,56.52,B,Raw,Open,7
F,61,2019-02-10,Fatema Alhasan,1977-10-10,Syria,90,-94,94,94,,94,60.56,B,Raw,Open,4
F,61,2019-02-10,Nino Sabashvili,1981-06-02,Georgia,35,-40,-42,35,,35,60.08,B,Raw,Open,8
F,61,2019-02-10,Fatma Korany,2000-07-01,Egypt,105,108,110,110,-113,110,57.91,B,Raw,Open,1
F,61,2019-02-10,Naima Saidi,1980-09-21,Algeria,78,-82,82,82,,82,59.76,B,Raw,Open,5
F,61,2019-02-10,Gihan Abdelaziz,1974-10-29,Egypt,102,-107,109,109,,109,59.3,B,Raw,Open,2
F,61,2019-02-10,Somkhoun Anon,1977-10-14,Thailand,70,-75,75,75,,75,57.4,B,Raw,Open,6
F,67,2019-02-10,Tetyana Shyrokolava,1979-08-11,Ukraine,-100,100,105,105,,105,61.66,B,Raw,Open,3
F,67,2019-02-10,Natali Elias,1980-05-25,Syria,82,-85,-85,82,,82,65.41,B,Raw,Open,4
F,67,2019-02-10,Geeta,1987-10-12,India,-60,60,70,70,,70,64.1,B,Raw,Open,5
F,67,2019-02-10,Mariana D'Andrea,1998-02-12,Brazil,112,-117,-117,112,,112,64.01,B,Raw,Open,1
F,67,2019-02-10,Hyeong Hui Kim,1973-10-21,South Korea,100,105,106,106,,106,65.31,B,Raw,Open,2
F,73,2019-02-10,Larisa Marinenkova,1969-03-07,Moldova,-80,-80,-80,,,,72.23,B,Raw,Open,DQ
F,73,2019-02-10,Nataliia Oliinyk,1981-07-09,Ukraine,105,111,-113,111,,111,71.55,B,Raw,Open,4
F,73,2019-02-10,Nurtani Purba,1975-03-28,Indonesia,90,-95,-101,90,,90,71.45,B,Raw,Open,8
F,73,2019-02-10,Amal Mahmoud Hanafy Mahmoud,1978-10-21,Egypt,113,118,120,120,,120,67.1,B,Raw,Open,1
F,73,2019-02-10,Sanae Soubane,1978-05-20,Morocco,-107,107,-110,107,,107,71.6,B,Raw,Open,5
F,73,2019-02-10,Myeonghee Kim,1966-03-03,South Korea,57,-60,-62,57,,57,70.97,B,Raw,Open,9
F,73,2019-02-10,Sibel Cam,1990-07-04,Turkey,115,-120,-120,115,,115,69.1,B,Raw,Open,2
F,73,2019-02-10,Gamze Sayar,1997-05-22,Turkey,90,-97,97,97,,97,68.58,B,Raw,Open,6
F,73,2019-02-10,Gharam Alosmanee,1995-04-01,Iraq,-95,-95,-95,,,,71.71,B,Raw,Open,DQ
F,73,2019-02-10,Asma Issa,1991-09-25,Jordan,100,108,112,112,,112,71.62,B,Raw,Open,3
F,73,2019-02-10,Britney Arendse,1999-12-17,Ireland,-92,93,-96,93,-99,93,72.22,B,Raw,Open,7
F,73,2019-02-10,Rasha Alshiki,1975-04-10,Syria,,,,,,,,B,Raw,Open,DQ
F,79,2019-02-11,Siti Mahmudah,1990-02-01,Indonesia,103,-107,-109,103,,103,76.5,B,Raw,Open,3
F,79,2019-02-11,Christina Pavitsou,1986-03-25,Greece,60,65,-70,65,,65,76.61,B,Raw,Open,7
F,79,2019-02-11,Hanan Majid Jumaah Al-Majidi,1990-12-07,Iraq,95,100,-104,100,,100,78.06,B,Raw,Open,4
F,79,2019-02-11,Gehan Hassan,1972-06-13,Egypt,110,116,-120,116,,116,76.54,B,Raw,Open,1
F,79,2019-02-11,Nacera Mohammed Merar,1986-02-10,Algeria,-95,96,-100,96,,96,74.68,B,Raw,Open,5
F,79,2019-02-11,Mayagozel Ekeyeva,1986-05-05,Turkmenistan,102,106,-109,106,,106,77.97,B,Raw,Open,2
F,79,2019-02-11,Maryam Alzeyoudi,1996-01-20,UAE,65,-70,-72,65,,65,75.66,B,Raw,Open,6
F,79,2019-02-11,Sahar El-Gnemi,1981-12-01,Lebanon,,,,,,,,B,Raw,Open,DQ
F,86,2019-02-12,Alice Folashade Oluwafemiayo,1985-03-11,Nigeria,-125,125,-133,125,,125,85.6,B,Raw,Open,2
F,86,2019-02-12,Alina Kumeyko,1997-07-27,Ukraine,-105,-107,-107,,,,82.95,B,Raw,Open,DQ
F,86,2019-02-12,Louise Sugden,1984-07-20,UK,-111,-111,112,112,,112,82.34,B,Raw,Open,3
F,86,2019-02-12,Tharwh Tayseer Hamdan Alhajaj,1973-01-01,Jordan,-123,-123,-123,,,,85.51,B,Raw,Open,DQ
F,86,2019-02-12,Tayana Medeiros,1993-03-14,Brazil,107,112,-113,112,,112,84.75,B,Raw,Open,4
F,86,2019-02-12,Amany Ali,1976-03-02,Egypt,123,126,-130,126,,126,82.22,B,Raw,Open,1
F,86,2019-02-12,Maria Rita De Oliveira,1999-01-13,Brazil,70,-76,76,76,,76,81.3,B,Raw,Open,5
F,86+,2019-02-12,Melaica Tuinfort,1990-03-11,Netherlands,-115,-115,-115,,,,91.57,B,Raw,Open,DQ
F,86+,2019-02-12,Polina Katsman,1966-10-07,Israel,110,116,-117,116,,116,107.14,B,Raw,Open,4
F,86+,2019-02-12,Randa Mahmoud,1987-08-20,Egypt,130,-136,139,139,,139,90.8,B,Raw,Open,1
F,86+,2019-02-12,Huda Ali,1977-03-03,Iraq,102,107,-118,107,,107,114.69,B,Raw,Open,5
F,86+,2019-02-12,Loveline Adaure Obiji,1990-09-11,Nigeria,100,125,138,138,,138,99.09,B,Raw,Open,2
F,86+,2019-02-12,Marcia Cristina Menezes,1967-09-30,Brazil,100,-103,-107,100,,100,87.21,B,Raw,Open,6
F,86+,2019-02-12,Perla Barcenas,1971-05-13,Mexico,127,131,135,135,,135,96.88,B,Raw,Open,3
F,86+,2019-02-12,Netsuda Panna,1982-01-01,Thailand,82,86,-90,86,,86,102.61,B,Raw,Open,7
F,86+,2019-02-12,Ghazala Alaquori,1973-06-08,Lebanon,,,,,,,,B,Raw,Open,DQ
